{
	"parent": "aladDNA:block/Recombinasa_A",
	"display": {
		"thirdperson": {
			"rotation": [ 10, -45, 170 ],
			"translation": [0, 1.5, -2.75 ],
			"scale": [ 0.375, 0.375, 0.375 ]
		},
		"gui":{
			"rotation": [ 0, 45, 35],
			"translation": [ 2.5, 1.5, -2.75],
			"scale": [ 1.25, 1.25, 1.25 ]
		}
	}
}