INDEX VERSION 1.126+C:\Users\Alex\Desktop\pene\eclipse\.metadata\.plugins\org.eclipse.jdt.core
1030363191.index
994834796.index
2423862704.index
4257325822.index
452027536.index
511962760.index
3080305789.index
147429579.index
1089149996.index
3656756579.index
2507338135.index
1382306233.index
3058808166.index
539688916.index
68036206.index
1590980320.index
1688589239.index
1787405673.index
3286075843.index
821969144.index
2912473679.index
3126290986.index
1528662079.index
172905663.index
799290864.index
1251661036.index
4187470955.index
1045485630.index
308274402.index
25255308.index
1242802025.index
2801239683.index
533208796.index
2953111474.index
2935675416.index
2025114090.index
2914244579.index
3619751411.index
1337478678.index
2945478995.index
605290374.index
3755833470.index
115418958.index
3270630656.index
3208362368.index
2537611581.index
3138411274.index
355369697.index
2438283844.index
3583336567.index
1918344484.index
4092280877.index
2915949485.index
4285840582.index
1987493584.index
2674037006.index
1006631201.index
1976987072.index
323251068.index
1375404249.index
1501884587.index
2562048227.index
2545481823.index
3045053200.index
3716007315.index
254257778.index
2593576420.index
1932581800.index
2535676096.index
724144073.index
3321913505.index
2228431251.index
1017853417.index
3604769962.index
1336290404.index
286606776.index
